{
  "project_info": {
    "project_number": "250627290981",
    "firebase_url": "https://projetodesafiocodeavenue.firebaseio.com",
    "project_id": "projetodesafiocodeavenue",
    "storage_bucket": "projetodesafiocodeavenue.appspot.com"
  },
  "client": [
    {
      "client_info": {
        "mobilesdk_app_id": "1:250627290981:android:e534fb7d6af05ef4",
        "android_client_info": {
          "package_name": "com.cezimbra.diego.projetodesafioavenuecode"
        }
      },
      "oauth_client": [
        {
          "client_id": "250627290981-bh7ef2suttcdlndc8n5gaqfa3kmnm1cs.apps.googleusercontent.com",
          "client_type": 3
        }
      ],
      "api_key": [
        {
          "current_key": "AIzaSyDVfWUY9Hkp-4QniO0taK32u7bqHKGPqsQ"
        }
      ],
      "services": {
        "analytics_service": {
          "status": 1
        },
        "appinvite_service": {
          "status": 1,
          "other_platform_oauth_client": []
        },
        "ads_service": {
          "status": 2
        }
      }
    }
  ],
  "configuration_version": "1"
}